{
  "enabled": {
    "message": "Qikipedia is enabled"
  },
  "disabled": {
    "message": "Qikipedia is disabled"
  },
  "readMore": {
    "message": "Read More"
  },
  "showSummary": {
    "message": "Show Wikipedia Summary"
  }
}
